#FIG 3.2
Landscape
Center
cm
Letter
100.00
Single
0
1200 2
4 0 0 0 0 0 12 0.0000 4 135 135 88000 23399 units: um\001
4 0 0 0 0 0 12 0.0000 4 135 135 88000 20799 mat_file material.dat\001
4 0 0 0 0 0 12 0.0000 4 135 135 88000 18200 scale 1 : 10000\001
4 0 0 0 0 0 12 0.0000 4 135 135 88000 15599 bound_file boundary1.dat\001
4 0 31 0 0 0 12 0.0000 4 135 135 88000 10400 boundary PEC\001
4 0 5 0 0 0 12 0.0000 4 135 135 88000 7799 boundary PMC\001
4 0 0 0 0 0 12 0.0000 4 135 135 88000 5199 boundary FREE\001
2 1 0 1  0 7 0 0 -1 0.000 0 0 -1 0 0 2
	0 0 80000 0
2 1 0 1  0 7 0 0 -1 0.000 0 0 -1 0 0 2
	80000 0 80000 26000
2 1 0 1  0 7 0 0 -1 0.000 0 0 -1 0 0 2
	80000 26000 0 26000
2 1 0 1  0 7 0 0 -1 0.000 0 0 -1 0 0 2
	0 26000 0 0
2 1 0 1  0 7 0 0 -1 0.000 0 0 -1 0 0 2
	0 0 80000 0
2 1 0 1  0 7 0 0 -1 0.000 0 0 -1 0 0 2
	80000 0 80000 10000
2 1 0 1  0 7 0 0 -1 0.000 0 0 -1 0 0 2
	80000 10000 0 10000
2 1 0 1  0 7 0 0 -1 0.000 0 0 -1 0 0 2
	0 10000 0 0
2 1 0 1  0 7 0 0 -1 0.000 0 0 -1 0 0 2
	0 10000 80000 10000
2 1 0 1  0 7 0 0 -1 0.000 0 0 -1 0 0 2
	80000 10000 80000 13000
2 1 0 1  0 7 0 0 -1 0.000 0 0 -1 0 0 2
	80000 13000 42667 13000
2 1 0 1  0 7 0 0 -1 0.000 0 0 -1 0 0 2
	42667 13000 42650 13000
2 1 0 1  0 7 0 0 -1 0.000 0 0 -1 0 0 2
	42650 13000 42634 13000
2 1 0 1  0 7 0 0 -1 0.000 0 0 -1 0 0 2
	42634 13000 37366 13000
2 1 0 1  0 7 0 0 -1 0.000 0 0 -1 0 0 2
	37366 13000 37350 13000
2 1 0 1  0 7 0 0 -1 0.000 0 0 -1 0 0 2
	37350 13000 37333 13000
2 1 0 1  0 7 0 0 -1 0.000 0 0 -1 0 0 2
	37333 13000 0 13000
2 1 0 1  0 7 0 0 -1 0.000 0 0 -1 0 0 2
	0 13000 0 10000
2 1 0 1  0 7 0 0 -1 0.000 0 0 -1 0 0 2
	37366 13000 42634 13000
2 1 0 1  0 7 0 0 -1 0.000 0 0 -1 0 0 2
	42634 13000 42634 16000
2 1 0 1  0 7 0 0 -1 0.000 0 0 -1 0 0 2
	42634 16000 37366 16000
2 1 0 1  0 7 0 0 -1 0.000 0 0 -1 0 0 2
	37366 16000 37366 13000
2 1 0 1  0 7 0 0 -1 0.000 0 0 -1 0 0 2
	37350 13000 37366 13000
2 1 0 1  0 7 0 0 -1 0.000 0 0 -1 0 0 2
	37366 13000 37366 16000
2 1 0 1  0 7 0 0 -1 0.000 0 0 -1 0 0 2
	37366 16000 37350 16000
2 1 0 1  0 7 0 0 -1 0.000 0 0 -1 0 0 2
	37350 16000 37350 13000
2 1 0 1  0 7 0 0 -1 0.000 0 0 -1 0 0 2
	42634 13000 42650 13000
2 1 0 1  0 7 0 0 -1 0.000 0 0 -1 0 0 2
	42650 13000 42650 16000
2 1 0 1  0 7 0 0 -1 0.000 0 0 -1 0 0 2
	42650 16000 42634 16000
2 1 0 1  0 7 0 0 -1 0.000 0 0 -1 0 0 2
	42634 16000 42634 13000
2 1 0 1  0 7 0 0 -1 0.000 0 0 -1 0 0 2
	37333 13000 37350 13000
2 1 0 1  0 7 0 0 -1 0.000 0 0 -1 0 0 2
	37350 13000 37350 16000
2 1 0 1  0 7 0 0 -1 0.000 0 0 -1 0 0 2
	37350 16000 37333 16000
2 1 0 1  0 7 0 0 -1 0.000 0 0 -1 0 0 2
	37333 16000 37333 13000
2 1 0 1  0 7 0 0 -1 0.000 0 0 -1 0 0 2
	42650 13000 42667 13000
2 1 0 1  0 7 0 0 -1 0.000 0 0 -1 0 0 2
	42667 13000 42667 16000
2 1 0 1  0 7 0 0 -1 0.000 0 0 -1 0 0 2
	42667 16000 42650 16000
2 1 0 1  0 7 0 0 -1 0.000 0 0 -1 0 0 2
	42650 16000 42650 13000
2 1 0 1  31 7 0 0 -1 0.000 0 0 -1 0 0 2
	0 0 80000 0
2 1 0 1  0 7 0 0 -1 0.000 0 0 -1 0 0 2
	80000 0 80000 26000
2 1 0 1  31 7 0 0 -1 0.000 0 0 -1 0 0 2
	80000 26000 0 26000
2 1 0 1  0 7 0 0 -1 0.000 0 0 -1 0 0 2
	0 26000 0 0
4 0 0 0 0 0 12 0.0000 4 135 135 41333 20999 material mat0 0.001000\001
4 0 0 0 0 0 12 0.0000 4 135 135 20000 2500 material mat1 0.001000\001
4 0 0 0 0 0 12 0.0000 4 135 135 20000 10750 material mat2 0.001000\001
4 0 0 0 0 0 12 0.0000 4 135 135 38683 13750 material mat3 0.001000\001
4 0 0 0 0 0 12 0.0000 4 135 135 37353 13750 material mat3 0.000000\001
4 0 0 0 0 0 12 0.0000 4 135 135 42637 13750 material mat3 0.000000\001
4 0 0 0 0 0 12 0.0000 4 135 135 37337 13750 material mat0 0.000000\001
4 0 0 0 0 0 12 0.0000 4 135 135 42654 13750 material mat0 0.000000\001
